367 1:0.31415927 2:-3.1415927
390 1:0.31415927 2:-2.984513
412 1:0.31415927 2:-2.8274333
431 1:0.31415927 2:-2.6703537
447 1:0.31415927 2:-2.513274
460 1:0.31415927 2:-2.3561943
470 1:0.31415927 2:-2.1991146
476 1:0.31415927 2:-2.0420349
478 1:0.31415927 2:-1.8849552
476 1:0.31415927 2:-1.7278755
470 1:0.31415927 2:-1.5707958
460 1:0.31415927 2:-1.4137161
447 1:0.31415927 2:-1.2566364
431 1:0.31415927 2:-1.0995567
412 1:0.31415927 2:-0.94247705
390 1:0.31415927 2:-0.7853974
367 1:0.31415927 2:-0.6283178
343 1:0.31415927 2:-0.47123814
318 1:0.31415927 2:-0.3141585
293 1:0.31415927 2:-0.15707886
365 1:0.4712389 2:-3.1415927
387 1:0.4712389 2:-2.984513
406 1:0.4712389 2:-2.8274333
422 1:0.4712389 2:-2.6703537
435 1:0.4712389 2:-2.513274
445 1:0.4712389 2:-2.3561943
451 1:0.4712389 2:-2.1991146
453 1:0.4712389 2:-2.0420349
451 1:0.4712389 2:-1.8849552
445 1:0.4712389 2:-1.7278755
435 1:0.4712389 2:-1.5707958
422 1:0.4712389 2:-1.4137161
406 1:0.4712389 2:-1.2566364
387 1:0.4712389 2:-1.0995567
365 1:0.4712389 2:-0.94247705
342 1:0.4712389 2:-0.7853974
318 1:0.4712389 2:-0.6283178
293 1:0.4712389 2:-0.47123814
268 1:0.4712389 2:-0.3141585
244 1:0.4712389 2:-0.15707886
365 1:0.62831855 2:-3.1415927
384 1:0.62831855 2:-2.984513
400 1:0.62831855 2:-2.8274333
413 1:0.62831855 2:-2.6703537
423 1:0.62831855 2:-2.513274
429 1:0.62831855 2:-2.3561943
431 1:0.62831855 2:-2.1991146
429 1:0.62831855 2:-2.0420349
423 1:0.62831855 2:-1.8849552
413 1:0.62831855 2:-1.7278755
400 1:0.62831855 2:-1.5707958
384 1:0.62831855 2:-1.4137161
365 1:0.62831855 2:-1.2566364
343 1:0.62831855 2:-1.0995567
320 1:0.62831855 2:-0.94247705
296 1:0.62831855 2:-0.7853974
271 1:0.62831855 2:-0.6283178
246 1:0.62831855 2:-0.47123814
222 1:0.62831855 2:-0.3141585
199 1:0.62831855 2:-0.15707886
363 1:0.7853982 2:-3.1415927
379 1:0.7853982 2:-2.984513
392 1:0.7853982 2:-2.8274333
402 1:0.7853982 2:-2.6703537
408 1:0.7853982 2:-2.513274
410 1:0.7853982 2:-2.3561943
408 1:0.7853982 2:-2.1991146
402 1:0.7853982 2:-2.0420349
392 1:0.7853982 2:-1.8849552
379 1:0.7853982 2:-1.7278755
363 1:0.7853982 2:-1.5707958
344 1:0.7853982 2:-1.4137161
322 1:0.7853982 2:-1.2566364
299 1:0.7853982 2:-1.0995567
275 1:0.7853982 2:-0.94247705
250 1:0.7853982 2:-0.7853974
225 1:0.7853982 2:-0.6283178
201 1:0.7853982 2:-0.47123814
178 1:0.7853982 2:-0.3141585
156 1:0.7853982 2:-0.15707886
362 1:0.9424778 2:-3.1415927
375 1:0.9424778 2:-2.984513
385 1:0.9424778 2:-2.8274333
391 1:0.9424778 2:-2.6703537
393 1:0.9424778 2:-2.513274
391 1:0.9424778 2:-2.3561943
385 1:0.9424778 2:-2.1991146
375 1:0.9424778 2:-2.0420349
362 1:0.9424778 2:-1.8849552
346 1:0.9424778 2:-1.7278755
327 1:0.9424778 2:-1.5707958
305 1:0.9424778 2:-1.4137161
282 1:0.9424778 2:-1.2566364
258 1:0.9424778 2:-1.0995567
233 1:0.9424778 2:-0.94247705
208 1:0.9424778 2:-0.7853974
184 1:0.9424778 2:-0.6283178
161 1:0.9424778 2:-0.47123814
139 1:0.9424778 2:-0.3141585
120 1:0.9424778 2:-0.15707886
361 1:1.0995574 2:-3.1415927
371 1:1.0995574 2:-2.984513
377 1:1.0995574 2:-2.8274333
379 1:1.0995574 2:-2.6703537
377 1:1.0995574 2:-2.513274
371 1:1.0995574 2:-2.3561943
361 1:1.0995574 2:-2.1991146
348 1:1.0995574 2:-2.0420349
332 1:1.0995574 2:-1.8849552
313 1:1.0995574 2:-1.7278755
291 1:1.0995574 2:-1.5707958
268 1:1.0995574 2:-1.4137161
244 1:1.0995574 2:-1.2566364
219 1:1.0995574 2:-1.0995567
194 1:1.0995574 2:-0.94247705
170 1:1.0995574 2:-0.7853974
147 1:1.0995574 2:-0.6283178
125 1:1.0995574 2:-0.47123814
106 1:1.0995574 2:-0.3141585
90 1:1.0995574 2:-0.15707886
361 1:1.2566371 2:-3.1415927
367 1:1.2566371 2:-2.984513
369 1:1.2566371 2:-2.8274333
367 1:1.2566371 2:-2.6703537
361 1:1.2566371 2:-2.513274
351 1:1.2566371 2:-2.3561943
338 1:1.2566371 2:-2.1991146
322 1:1.2566371 2:-2.0420349
303 1:1.2566371 2:-1.8849552
281 1:1.2566371 2:-1.7278755
258 1:1.2566371 2:-1.5707958
234 1:1.2566371 2:-1.4137161
209 1:1.2566371 2:-1.2566364
184 1:1.2566371 2:-1.0995567
160 1:1.2566371 2:-0.94247705
137 1:1.2566371 2:-0.7853974
115 1:1.2566371 2:-0.6283178
96 1:1.2566371 2:-0.47123814
80 1:1.2566371 2:-0.3141585
67 1:1.2566371 2:-0.15707886
361 1:1.4137168 2:-3.1415927
363 1:1.4137168 2:-2.984513
361 1:1.4137168 2:-2.8274333
355 1:1.4137168 2:-2.6703537
345 1:1.4137168 2:-2.513274
332 1:1.4137168 2:-2.3561943
316 1:1.4137168 2:-2.1991146
297 1:1.4137168 2:-2.0420349
275 1:1.4137168 2:-1.8849552
252 1:1.4137168 2:-1.7278755
228 1:1.4137168 2:-1.5707958
203 1:1.4137168 2:-1.4137161
178 1:1.4137168 2:-1.2566364
154 1:1.4137168 2:-1.0995567
131 1:1.4137168 2:-0.94247705
109 1:1.4137168 2:-0.7853974
90 1:1.4137168 2:-0.6283178
74 1:1.4137168 2:-0.47123814
61 1:1.4137168 2:-0.3141585
51 1:1.4137168 2:-0.15707886
360 1:1.5707965 2:-3.1415927
358 1:1.5707965 2:-2.984513
352 1:1.5707965 2:-2.8274333
342 1:1.5707965 2:-2.6703537
329 1:1.5707965 2:-2.513274
313 1:1.5707965 2:-2.3561943
294 1:1.5707965 2:-2.1991146
272 1:1.5707965 2:-2.0420349
249 1:1.5707965 2:-1.8849552
225 1:1.5707965 2:-1.7278755
200 1:1.5707965 2:-1.5707958
175 1:1.5707965 2:-1.4137161
151 1:1.5707965 2:-1.2566364
128 1:1.5707965 2:-1.0995567
106 1:1.5707965 2:-0.94247705
87 1:1.5707965 2:-0.7853974
71 1:1.5707965 2:-0.6283178
58 1:1.5707965 2:-0.47123814
48 1:1.5707965 2:-0.3141585
42 1:1.5707965 2:-0.15707886
361 1:1.7278762 2:-3.1415927
355 1:1.7278762 2:-2.984513
345 1:1.7278762 2:-2.8274333
332 1:1.7278762 2:-2.6703537
316 1:1.7278762 2:-2.513274
297 1:1.7278762 2:-2.3561943
275 1:1.7278762 2:-2.1991146
252 1:1.7278762 2:-2.0420349
228 1:1.7278762 2:-1.8849552
203 1:1.7278762 2:-1.7278755
178 1:1.7278762 2:-1.5707958
154 1:1.7278762 2:-1.4137161
131 1:1.7278762 2:-1.2566364
109 1:1.7278762 2:-1.0995567
90 1:1.7278762 2:-0.94247705
74 1:1.7278762 2:-0.7853974
61 1:1.7278762 2:-0.6283178
51 1:1.7278762 2:-0.47123814
45 1:1.7278762 2:-0.3141585
43 1:1.7278762 2:-0.15707886
361 1:1.8849559 2:-3.1415927
351 1:1.8849559 2:-2.984513
338 1:1.8849559 2:-2.8274333
322 1:1.8849559 2:-2.6703537
303 1:1.8849559 2:-2.513274
281 1:1.8849559 2:-2.3561943
258 1:1.8849559 2:-2.1991146
234 1:1.8849559 2:-2.0420349
209 1:1.8849559 2:-1.8849552
184 1:1.8849559 2:-1.7278755
160 1:1.8849559 2:-1.5707958
137 1:1.8849559 2:-1.4137161
115 1:1.8849559 2:-1.2566364
96 1:1.8849559 2:-1.0995567
80 1:1.8849559 2:-0.94247705
67 1:1.8849559 2:-0.7853974
57 1:1.8849559 2:-0.6283178
51 1:1.8849559 2:-0.47123814
49 1:1.8849559 2:-0.3141585
51 1:1.8849559 2:-0.15707886
361 1:2.0420356 2:-3.1415927
348 1:2.0420356 2:-2.984513
332 1:2.0420356 2:-2.8274333
313 1:2.0420356 2:-2.6703537
291 1:2.0420356 2:-2.513274
268 1:2.0420356 2:-2.3561943
244 1:2.0420356 2:-2.1991146
219 1:2.0420356 2:-2.0420349
194 1:2.0420356 2:-1.8849552
170 1:2.0420356 2:-1.7278755
147 1:2.0420356 2:-1.5707958
125 1:2.0420356 2:-1.4137161
106 1:2.0420356 2:-1.2566364
90 1:2.0420356 2:-1.0995567
77 1:2.0420356 2:-0.94247705
67 1:2.0420356 2:-0.7853974
61 1:2.0420356 2:-0.6283178
59 1:2.0420356 2:-0.47123814
61 1:2.0420356 2:-0.3141585
67 1:2.0420356 2:-0.15707886
362 1:2.1991153 2:-3.1415927
346 1:2.1991153 2:-2.984513
327 1:2.1991153 2:-2.8274333
305 1:2.1991153 2:-2.6703537
282 1:2.1991153 2:-2.513274
258 1:2.1991153 2:-2.3561943
233 1:2.1991153 2:-2.1991146
208 1:2.1991153 2:-2.0420349
184 1:2.1991153 2:-1.8849552
161 1:2.1991153 2:-1.7278755
139 1:2.1991153 2:-1.5707958
120 1:2.1991153 2:-1.4137161
104 1:2.1991153 2:-1.2566364
91 1:2.1991153 2:-1.0995567
81 1:2.1991153 2:-0.94247705
75 1:2.1991153 2:-0.7853974
73 1:2.1991153 2:-0.6283178
75 1:2.1991153 2:-0.47123814
81 1:2.1991153 2:-0.3141585
91 1:2.1991153 2:-0.15707886
363 1:2.356195 2:-3.1415927
344 1:2.356195 2:-2.984513
322 1:2.356195 2:-2.8274333
299 1:2.356195 2:-2.6703537
275 1:2.356195 2:-2.513274
250 1:2.356195 2:-2.3561943
225 1:2.356195 2:-2.1991146
201 1:2.356195 2:-2.0420349
178 1:2.356195 2:-1.8849552
156 1:2.356195 2:-1.7278755
137 1:2.356195 2:-1.5707958
121 1:2.356195 2:-1.4137161
108 1:2.356195 2:-1.2566364
98 1:2.356195 2:-1.0995567
92 1:2.356195 2:-0.94247705
90 1:2.356195 2:-0.7853974
92 1:2.356195 2:-0.6283178
98 1:2.356195 2:-0.47123814
108 1:2.356195 2:-0.3141585
121 1:2.356195 2:-0.15707886
365 1:2.5132747 2:-3.1415927
343 1:2.5132747 2:-2.984513
320 1:2.5132747 2:-2.8274333
296 1:2.5132747 2:-2.6703537
271 1:2.5132747 2:-2.513274
246 1:2.5132747 2:-2.3561943
222 1:2.5132747 2:-2.1991146
199 1:2.5132747 2:-2.0420349
177 1:2.5132747 2:-1.8849552
158 1:2.5132747 2:-1.7278755
142 1:2.5132747 2:-1.5707958
129 1:2.5132747 2:-1.4137161
119 1:2.5132747 2:-1.2566364
113 1:2.5132747 2:-1.0995567
111 1:2.5132747 2:-0.94247705
113 1:2.5132747 2:-0.7853974
119 1:2.5132747 2:-0.6283178
129 1:2.5132747 2:-0.47123814
142 1:2.5132747 2:-0.3141585
158 1:2.5132747 2:-0.15707886
365 1:2.6703544 2:-3.1415927
342 1:2.6703544 2:-2.984513
318 1:2.6703544 2:-2.8274333
293 1:2.6703544 2:-2.6703537
268 1:2.6703544 2:-2.513274
244 1:2.6703544 2:-2.3561943
221 1:2.6703544 2:-2.1991146
199 1:2.6703544 2:-2.0420349
180 1:2.6703544 2:-1.8849552
164 1:2.6703544 2:-1.7278755
151 1:2.6703544 2:-1.5707958
141 1:2.6703544 2:-1.4137161
135 1:2.6703544 2:-1.2566364
133 1:2.6703544 2:-1.0995567
135 1:2.6703544 2:-0.94247705
141 1:2.6703544 2:-0.7853974
151 1:2.6703544 2:-0.6283178
164 1:2.6703544 2:-0.47123814
180 1:2.6703544 2:-0.3141585
199 1:2.6703544 2:-0.15707886
