0.31415927 1:59 2:367
0.31415927 1:69 2:390
0.31415927 1:82 2:412
0.31415927 1:98 2:431
0.31415927 1:117 2:447
0.31415927 1:139 2:460
0.31415927 1:162 2:470
0.31415927 1:186 2:476
0.31415927 1:211 2:478
0.31415927 1:236 2:476
0.31415927 1:260 2:470
0.31415927 1:283 2:460
0.31415927 1:305 2:447
0.31415927 1:324 2:431
0.31415927 1:340 2:412
0.31415927 1:353 2:390
0.31415927 1:363 2:367
0.31415927 1:369 2:343
0.31415927 1:371 2:318
0.31415927 1:369 2:293
0.4712389 1:59 2:365
0.4712389 1:72 2:387
0.4712389 1:88 2:406
0.4712389 1:107 2:422
0.4712389 1:129 2:435
0.4712389 1:152 2:445
0.4712389 1:176 2:451
0.4712389 1:201 2:453
0.4712389 1:226 2:451
0.4712389 1:250 2:445
0.4712389 1:273 2:435
0.4712389 1:295 2:422
0.4712389 1:314 2:406
0.4712389 1:330 2:387
0.4712389 1:343 2:365
0.4712389 1:353 2:342
0.4712389 1:359 2:318
0.4712389 1:361 2:293
0.4712389 1:359 2:268
0.4712389 1:353 2:244
0.62831855 1:58 2:365
0.62831855 1:74 2:384
0.62831855 1:93 2:400
0.62831855 1:115 2:413
0.62831855 1:138 2:423
0.62831855 1:162 2:429
0.62831855 1:187 2:431
0.62831855 1:212 2:429
0.62831855 1:236 2:423
0.62831855 1:259 2:413
0.62831855 1:281 2:400
0.62831855 1:300 2:384
0.62831855 1:316 2:365
0.62831855 1:329 2:343
0.62831855 1:339 2:320
0.62831855 1:345 2:296
0.62831855 1:347 2:271
0.62831855 1:345 2:246
0.62831855 1:339 2:222
0.62831855 1:329 2:199
0.7853982 1:57 2:363
0.7853982 1:76 2:379
0.7853982 1:98 2:392
0.7853982 1:121 2:402
0.7853982 1:145 2:408
0.7853982 1:170 2:410
0.7853982 1:195 2:408
0.7853982 1:219 2:402
0.7853982 1:242 2:392
0.7853982 1:264 2:379
0.7853982 1:283 2:363
0.7853982 1:299 2:344
0.7853982 1:312 2:322
0.7853982 1:322 2:299
0.7853982 1:328 2:275
0.7853982 1:330 2:250
0.7853982 1:328 2:225
0.7853982 1:322 2:201
0.7853982 1:312 2:178
0.7853982 1:299 2:156
0.9424778 1:55 2:362
0.9424778 1:77 2:375
0.9424778 1:100 2:385
0.9424778 1:124 2:391
0.9424778 1:149 2:393
0.9424778 1:174 2:391
0.9424778 1:198 2:385
0.9424778 1:221 2:375
0.9424778 1:243 2:362
0.9424778 1:262 2:346
0.9424778 1:278 2:327
0.9424778 1:291 2:305
0.9424778 1:301 2:282
0.9424778 1:307 2:258
0.9424778 1:309 2:233
0.9424778 1:307 2:208
0.9424778 1:301 2:184
0.9424778 1:291 2:161
0.9424778 1:278 2:139
0.9424778 1:262 2:120
1.0995574 1:55 2:361
1.0995574 1:78 2:371
1.0995574 1:102 2:377
1.0995574 1:127 2:379
1.0995574 1:152 2:377
1.0995574 1:176 2:371
1.0995574 1:199 2:361
1.0995574 1:221 2:348
1.0995574 1:240 2:332
1.0995574 1:256 2:313
1.0995574 1:269 2:291
1.0995574 1:279 2:268
1.0995574 1:285 2:244
1.0995574 1:287 2:219
1.0995574 1:285 2:194
1.0995574 1:279 2:170
1.0995574 1:269 2:147
1.0995574 1:256 2:125
1.0995574 1:240 2:106
1.0995574 1:221 2:90
1.2566371 1:53 2:361
1.2566371 1:77 2:367
1.2566371 1:102 2:369
1.2566371 1:127 2:367
1.2566371 1:151 2:361
1.2566371 1:174 2:351
1.2566371 1:196 2:338
1.2566371 1:215 2:322
1.2566371 1:231 2:303
1.2566371 1:244 2:281
1.2566371 1:254 2:258
1.2566371 1:260 2:234
1.2566371 1:262 2:209
1.2566371 1:260 2:184
1.2566371 1:254 2:160
1.2566371 1:244 2:137
1.2566371 1:231 2:115
1.2566371 1:215 2:96
1.2566371 1:196 2:80
1.2566371 1:174 2:67
1.4137168 1:51 2:361
1.4137168 1:76 2:363
1.4137168 1:101 2:361
1.4137168 1:125 2:355
1.4137168 1:148 2:345
1.4137168 1:170 2:332
1.4137168 1:189 2:316
1.4137168 1:205 2:297
1.4137168 1:218 2:275
1.4137168 1:228 2:252
1.4137168 1:234 2:228
1.4137168 1:236 2:203
1.4137168 1:234 2:178
1.4137168 1:228 2:154
1.4137168 1:218 2:131
1.4137168 1:205 2:109
1.4137168 1:189 2:90
1.4137168 1:170 2:74
1.4137168 1:148 2:61
1.4137168 1:125 2:51
1.5707965 1:50 2:360
1.5707965 1:75 2:358
1.5707965 1:99 2:352
1.5707965 1:122 2:342
1.5707965 1:144 2:329
1.5707965 1:163 2:313
1.5707965 1:179 2:294
1.5707965 1:192 2:272
1.5707965 1:202 2:249
1.5707965 1:208 2:225
1.5707965 1:210 2:200
1.5707965 1:208 2:175
1.5707965 1:202 2:151
1.5707965 1:192 2:128
1.5707965 1:179 2:106
1.5707965 1:163 2:87
1.5707965 1:144 2:71
1.5707965 1:122 2:58
1.5707965 1:99 2:48
1.5707965 1:75 2:42
1.7278762 1:49 2:361
1.7278762 1:73 2:355
1.7278762 1:96 2:345
1.7278762 1:118 2:332
1.7278762 1:137 2:316
1.7278762 1:153 2:297
1.7278762 1:166 2:275
1.7278762 1:176 2:252
1.7278762 1:182 2:228
1.7278762 1:184 2:203
1.7278762 1:182 2:178
1.7278762 1:176 2:154
1.7278762 1:166 2:131
1.7278762 1:153 2:109
1.7278762 1:137 2:90
1.7278762 1:118 2:74
1.7278762 1:96 2:61
1.7278762 1:73 2:51
1.7278762 1:49 2:45
1.7278762 1:24 2:43
1.8849559 1:47 2:361
1.8849559 1:70 2:351
1.8849559 1:92 2:338
1.8849559 1:111 2:322
1.8849559 1:127 2:303
1.8849559 1:140 2:281
1.8849559 1:150 2:258
1.8849559 1:156 2:234
1.8849559 1:158 2:209
1.8849559 1:156 2:184
1.8849559 1:150 2:160
1.8849559 1:140 2:137
1.8849559 1:127 2:115
1.8849559 1:111 2:96
1.8849559 1:92 2:80
1.8849559 1:70 2:67
1.8849559 1:47 2:57
1.8849559 1:23 2:51
1.8849559 1:-2 2:49
1.8849559 1:-27 2:51
2.0420356 1:45 2:361
2.0420356 1:67 2:348
2.0420356 1:86 2:332
2.0420356 1:102 2:313
2.0420356 1:115 2:291
2.0420356 1:125 2:268
2.0420356 1:131 2:244
2.0420356 1:133 2:219
2.0420356 1:131 2:194
2.0420356 1:125 2:170
2.0420356 1:115 2:147
2.0420356 1:102 2:125
2.0420356 1:86 2:106
2.0420356 1:67 2:90
2.0420356 1:45 2:77
2.0420356 1:22 2:67
2.0420356 1:-2 2:61
2.0420356 1:-27 2:59
2.0420356 1:-52 2:61
2.0420356 1:-76 2:67
2.1991153 1:45 2:362
2.1991153 1:64 2:346
2.1991153 1:80 2:327
2.1991153 1:93 2:305
2.1991153 1:103 2:282
2.1991153 1:109 2:258
2.1991153 1:111 2:233
2.1991153 1:109 2:208
2.1991153 1:103 2:184
2.1991153 1:93 2:161
2.1991153 1:80 2:139
2.1991153 1:64 2:120
2.1991153 1:45 2:104
2.1991153 1:23 2:91
2.1991153 1:0 2:81
2.1991153 1:-24 2:75
2.1991153 1:-49 2:73
2.1991153 1:-74 2:75
2.1991153 1:-98 2:81
2.1991153 1:-121 2:91
2.356195 1:43 2:363
2.356195 1:59 2:344
2.356195 1:72 2:322
2.356195 1:82 2:299
2.356195 1:88 2:275
2.356195 1:90 2:250
2.356195 1:88 2:225
2.356195 1:82 2:201
2.356195 1:72 2:178
2.356195 1:59 2:156
2.356195 1:43 2:137
2.356195 1:24 2:121
2.356195 1:2 2:108
2.356195 1:-21 2:98
2.356195 1:-45 2:92
2.356195 1:-70 2:90
2.356195 1:-95 2:92
2.356195 1:-119 2:98
2.356195 1:-142 2:108
2.356195 1:-164 2:121
2.5132747 1:42 2:365
2.5132747 1:55 2:343
2.5132747 1:65 2:320
2.5132747 1:71 2:296
2.5132747 1:73 2:271
2.5132747 1:71 2:246
2.5132747 1:65 2:222
2.5132747 1:55 2:199
2.5132747 1:42 2:177
2.5132747 1:26 2:158
2.5132747 1:7 2:142
2.5132747 1:-15 2:129
2.5132747 1:-38 2:119
2.5132747 1:-62 2:113
2.5132747 1:-87 2:111
2.5132747 1:-112 2:113
2.5132747 1:-136 2:119
2.5132747 1:-159 2:129
2.5132747 1:-181 2:142
2.5132747 1:-200 2:158
2.6703544 1:41 2:365
2.6703544 1:51 2:342
2.6703544 1:57 2:318
2.6703544 1:59 2:293
2.6703544 1:57 2:268
2.6703544 1:51 2:244
2.6703544 1:41 2:221
2.6703544 1:28 2:199
2.6703544 1:12 2:180
2.6703544 1:-7 2:164
2.6703544 1:-29 2:151
2.6703544 1:-52 2:141
2.6703544 1:-76 2:135
2.6703544 1:-101 2:133
2.6703544 1:-126 2:135
2.6703544 1:-150 2:141
2.6703544 1:-173 2:151
2.6703544 1:-195 2:164
2.6703544 1:-214 2:180
2.6703544 1:-230 2:199
